Political leaning and use of public service media in a fragmented media landscape: longitudinal analysis over 30 years in Sweden
…
2.2 Frequency of PS use

Use any of Aktuellt, Rapport or Ekot.

Frequency table of public service news use.

supersom %>% 
  select(year, psuse) %>% 
  group_by(year, psuse) %>%
  na.exclude() %>% 
  count() %>%
  spread(psuse, n)

## # A tibble: 30 x 3
## # Groups:   year [30]
##     year `PS news at least 5 days/week` `PS news more seldom`
##  * <dbl>                          <int>                 <int>
##  1  1986                           1594                    21
##  2  1987                           1636                    13
##  3  1988                           1613                    16
##  4  1989                           1545                    16
##  5  1990                           1547                    16
##  6  1991                           1539                    20
##  7  1992                           1835                    22
##  8  1993                           1777                    39
##  9  1994                           1628                    36
## 10  1995                           1699                    42
## # ... with 20 more rows
…
df$apa <- mapply(moe, df$percent.often / 100, df$n, digits=0)

#df %>% filter(date %in% c(as.Date("1986-01-01"), as.Date("2015-01-01")))
df

## # A tibble: 280 x 7
## # Groups:   party, date [280]
##    party          date       n.often n.seldom     n percent.often apa     
##    <fct>          <date>       <int>    <int> <int>         <dbl> <chr>   
##  1 Left Party (V) 1986-01-01      47       NA    NA          NA   ""      
##  2 Left Party (V) 1987-01-01      41       NA    NA          NA   ""      
##  3 Left Party (V) 1988-01-01      66        1    67          98.5 99 %, 9~
##  4 Left Party (V) 1989-01-01     102       NA    NA          NA   ""      
##  5 Left Party (V) 1990-01-01      96       NA    NA          NA   ""      
##  6 Left Party (V) 1991-01-01      61        3    64          95.3 95 %, 9~
##  7 Left Party (V) 1992-01-01      65        1    66          98.5 98 %, 9~
##  8 Left Party (V) 1993-01-01      44        5    49          89.8 90 %, 9~
##  9 Left Party (V) 1994-01-01     110        1   111          99.1 99 %, 9~
## 10 Left Party (V) 1995-01-01     209        5   214          97.7 98 %, 9~
## # ... with 270 more rows
…
# Center year 1986 as 1.
supersom$time <- 1 + supersom$year - 1986

4.2 Descriptives

Mean public service news use by year, including standard deviation.

supersom %>% group_by(year) %>% summarize(psindex = mean(psindex.rev, na.rm=TRUE), psindex.stddev = sd(psindex.rev, na.rm=TRUE))

## # A tibble: 30 x 3
##     year psindex psindex.stddev
##    <dbl>   <dbl>          <dbl>
##  1  1986    3.70           1.17
##  2  1987    3.75           1.17
##  3  1988    3.70           1.17
##  4  1989    3.76           1.16
##  5  1990    3.83           1.19
##  6  1991    3.72           1.21
##  7  1992    3.70           1.19
##  8  1993    3.65           1.22
##  9  1994    3.65           1.26
## 10  1995    3.57           1.31
## # ... with 20 more rows
…
