Analys av två miljoner nyhetsrubriker under tre år
…
stories_per_month <- titles %>%
  group_by(month) %>%
  summarize(month_total = n())

word_month_counts <- title_words %>%
  filter(word_total >= 1000) %>%
  count(word, month) %>%
  complete(word, month, fill = list(n = 0)) %>%
  inner_join(stories_per_month, by = "month") %>%
  mutate(percent = n / month_total) %>%
  mutate(year = year(month) + yday(month) / 365)

word_month_counts

## Source: local data frame [28,268 x 6]
## Groups: word [676]
## 
##     word      month     n month_total      percent     year
##    <chr>     <dttm> <dbl>       <int>        <dbl>    <dbl>
## 1      a 2014-02-01    16       12400 0.0012903226 2014.088
## 2      a 2014-03-01    36       47252 0.0007618725 2014.164
## 3      a 2014-04-01    33       49517 0.0006664378 2014.249
## 4      a 2014-05-01    39       47310 0.0008243500 2014.332
## 5      a 2014-06-01    26       45274 0.0005742810 2014.416
## 6      a 2014-07-01    40       43943 0.0009102701 2014.499
## 7      a 2014-08-01    34       41760 0.0008141762 2014.584
## 8      a 2014-09-01    62       42955 0.0014433710 2014.668
## 9      a 2014-10-01    40       49805 0.0008031322 2014.751
## 10     a 2014-11-01    24       49211 0.0004876958 2014.836
## # ... with 28,258 more rows
…
mod <- ~ glm(cbind(n, month_total - n) ~ year, ., family = "binomial")

slopes <- word_month_counts %>%
  nest(-word) %>%
  mutate(model = map(data, mod)) %>%
  unnest(map(model, tidy)) %>%
  filter(term == "year") %>%
  arrange(desc(estimate))

# Remove more stop words ex post facto.
slopes <- slopes %>% filter(!(word %in% c("quot", "visar", "person", "ville", "hittade", "söker", "the", "just", "donald", "trumps", "förd", "höjer", "sänker")))

slopes

## # A tibble: 666 × 6
##         word  term  estimate  std.error statistic       p.value
##        <chr> <chr>     <dbl>      <dbl>     <dbl>         <dbl>
## 1      trump  year 1.5350289 0.02052210  74.79883  0.000000e+00
## 2     brexit  year 0.8659545 0.03921822  22.08041 4.876221e-108
## 3    clinton  year 0.7131490 0.02820690  25.28278 4.940780e-141
## 4     london  year 0.6294950 0.03363362  18.71624  3.650083e-78
## 5  nyanlända  year 0.6168283 0.03238740  19.04532  7.185236e-81
## 6   attacken  year 0.6095297 0.03303718  18.44981  5.233047e-76
## 7         e6  year 0.5581252 0.02439697  22.87682 7.905283e-116
## 8  personbil  year 0.5533030 0.02890289  19.14352  1.096088e-81
## 9       larm  year 0.5183420 0.02014182  25.73462 4.792174e-146
## 10  avstängd  year 0.4843942 0.02698537  17.95025  4.777162e-72
## # ... with 656 more rows
…
