Analys av en miljon nyhetsrubriker
…
stories_per_month <- titles %>%
  group_by(month) %>%
  summarize(month_total = n())

word_month_counts <- title_words %>%
  filter(word_total >= 1000) %>%
  count(word, month) %>%
  complete(word, month, fill = list(n = 0)) %>%
  inner_join(stories_per_month, by = "month") %>%
  mutate(percent = n / month_total) %>%
  mutate(year = year(month) + yday(month) / 365)

word_month_counts

## Source: local data frame [4,510 x 6]
## Groups: word [215]
## 
##     word      month     n month_total      percent     year
##    <chr>     <dttm> <dbl>       <int>        <dbl>    <dbl>
## 1    aik 2014-02-01     7       11396 0.0006142506 2014.088
## 2    aik 2014-03-01    44       46725 0.0009416800 2014.164
## 3    aik 2014-04-01   119       48992 0.0024289680 2014.249
## 4    aik 2014-05-01    77       45855 0.0016792062 2014.332
## 5    aik 2014-06-01    23       45102 0.0005099552 2014.416
## 6    aik 2014-07-01    25       43798 0.0005708023 2014.499
## 7    aik 2014-08-01   108       41665 0.0025921037 2014.584
## 8    aik 2014-09-01    43       42844 0.0010036411 2014.668
## 9    aik 2014-10-01    75       49680 0.0015096618 2014.751
## 10   aik 2014-11-01    68       49092 0.0013851544 2014.836
## # ... with 4,500 more rows
…
